************* Module X_PSI_PT__2015
C:199, 0: Wrong continued indentation.
         ]
        |^ (bad-continuation)
C:219, 0: Wrong continued indentation.
         ]
        |^ (bad-continuation)
C:239, 0: Wrong continued indentation.
         ]
        |^ (bad-continuation)
C:535, 0: Wrong continued indentation.
         ]
        |^ (bad-continuation)
W:556,41: Unused argument 'k' (unused-argument)
W:707, 8: Unused variable 'num_ex' (unused-variable)


Report
======
141 statements analysed.

Statistics by type
------------------

+---------+-------+-----------+-----------+------------+---------+
|type     |number |old number |difference |%documented |%badname |
+=========+=======+===========+===========+============+=========+
|module   |1      |1          |=          |100.00      |100.00   |
+---------+-------+-----------+-----------+------------+---------+
|class    |0      |0          |=          |0           |0        |
+---------+-------+-----------+-----------+------------+---------+
|method   |0      |0          |=          |0           |0        |
+---------+-------+-----------+-----------+------------+---------+
|function |17     |17         |=          |100.00      |88.24    |
+---------+-------+-----------+-----------+------------+---------+



Raw metrics
-----------

+----------+-------+------+---------+-----------+
|type      |number |%     |previous |difference |
+==========+=======+======+=========+===========+
|code      |212    |27.08 |212      |=          |
+----------+-------+------+---------+-----------+
|docstring |455    |58.11 |455      |=          |
+----------+-------+------+---------+-----------+
|comment   |40     |5.11  |40       |=          |
+----------+-------+------+---------+-----------+
|empty     |76     |9.71  |76       |=          |
+----------+-------+------+---------+-----------+



Duplication
-----------

+-------------------------+------+---------+-----------+
|                         |now   |previous |difference |
+=========================+======+=========+===========+
|nb duplicated lines      |0     |0        |=          |
+-------------------------+------+---------+-----------+
|percent duplicated lines |0.000 |0.000    |=          |
+-------------------------+------+---------+-----------+



Messages by category
--------------------

+-----------+-------+---------+-----------+
|type       |number |previous |difference |
+===========+=======+=========+===========+
|convention |4      |9        |-5.00      |
+-----------+-------+---------+-----------+
|refactor   |0      |0        |=          |
+-----------+-------+---------+-----------+
|warning    |2      |10       |-8.00      |
+-----------+-------+---------+-----------+
|error      |0      |0        |=          |
+-----------+-------+---------+-----------+



Messages
--------

+-----------------+------------+
|message id       |occurrences |
+=================+============+
|bad-continuation |4           |
+-----------------+------------+
|unused-variable  |1           |
+-----------------+------------+
|unused-argument  |1           |
+-----------------+------------+



Global evaluation
-----------------
Your code has been rated at 9.57/10 (previous run: 8.65/10, +0.92)
So close to being perfect...

