

Report
======
35 statements analysed.

Statistics by type
------------------

+---------+-------+-----------+-----------+------------+---------+
|type     |number |old number |difference |%documented |%badname |
+=========+=======+===========+===========+============+=========+
|module   |1      |NC         |NC         |100.00      |100.00   |
+---------+-------+-----------+-----------+------------+---------+
|class    |0      |NC         |NC         |0           |0        |
+---------+-------+-----------+-----------+------------+---------+
|method   |0      |NC         |NC         |0           |0        |
+---------+-------+-----------+-----------+------------+---------+
|function |11     |NC         |NC         |100.00      |72.73    |
+---------+-------+-----------+-----------+------------+---------+



External dependencies
---------------------
::

    numpy (PSI_Mat2_2015_25)
      \-linalg (PSI_Mat2_2015_25)
      \-polynomial (PSI_Mat2_2015_25)



Raw metrics
-----------

+----------+-------+------+---------+-----------+
|type      |number |%     |previous |difference |
+==========+=======+======+=========+===========+
|code      |35     |8.93  |NC       |NC         |
+----------+-------+------+---------+-----------+
|docstring |306    |78.06 |NC       |NC         |
+----------+-------+------+---------+-----------+
|comment   |25     |6.38  |NC       |NC         |
+----------+-------+------+---------+-----------+
|empty     |26     |6.63  |NC       |NC         |
+----------+-------+------+---------+-----------+



Duplication
-----------

+-------------------------+------+---------+-----------+
|                         |now   |previous |difference |
+=========================+======+=========+===========+
|nb duplicated lines      |0     |NC       |NC         |
+-------------------------+------+---------+-----------+
|percent duplicated lines |0.000 |NC       |NC         |
+-------------------------+------+---------+-----------+



Messages by category
--------------------

+-----------+-------+---------+-----------+
|type       |number |previous |difference |
+===========+=======+=========+===========+
|convention |0      |NC       |NC         |
+-----------+-------+---------+-----------+
|refactor   |0      |NC       |NC         |
+-----------+-------+---------+-----------+
|warning    |0      |NC       |NC         |
+-----------+-------+---------+-----------+
|error      |0      |NC       |NC         |
+-----------+-------+---------+-----------+



Global evaluation
-----------------
Your code has been rated at 10.00/10
Wow ! Now this deserves our uttermost respect.
Please send your code to python-projects@logilab.org

