************* Module conf
W: 64, 0: Redefining built-in 'copyright' (redefined-builtin)
C:  1, 0: Missing module docstring (missing-docstring)


Report
======
30 statements analysed.

Statistics by type
------------------

+---------+-------+-----------+-----------+------------+---------+
|type     |number |old number |difference |%documented |%badname |
+=========+=======+===========+===========+============+=========+
|module   |1      |1          |=          |0.00        |0.00     |
+---------+-------+-----------+-----------+------------+---------+
|class    |0      |0          |=          |0           |0        |
+---------+-------+-----------+-----------+------------+---------+
|method   |0      |0          |=          |0           |0        |
+---------+-------+-----------+-----------+------------+---------+
|function |0      |0          |=          |0           |0        |
+---------+-------+-----------+-----------+------------+---------+



External dependencies
---------------------
::

    sphinx_rtd_theme (conf)



Raw metrics
-----------

+----------+-------+------+---------+-----------+
|type      |number |%     |previous |difference |
+==========+=======+======+=========+===========+
|code      |31     |14.22 |31       |=          |
+----------+-------+------+---------+-----------+
|docstring |12     |5.50  |12       |=          |
+----------+-------+------+---------+-----------+
|comment   |137    |62.84 |137      |=          |
+----------+-------+------+---------+-----------+
|empty     |38     |17.43 |38       |=          |
+----------+-------+------+---------+-----------+



Duplication
-----------

+-------------------------+------+---------+-----------+
|                         |now   |previous |difference |
+=========================+======+=========+===========+
|nb duplicated lines      |0     |0        |=          |
+-------------------------+------+---------+-----------+
|percent duplicated lines |0.000 |0.000    |=          |
+-------------------------+------+---------+-----------+



Messages by category
--------------------

+-----------+-------+---------+-----------+
|type       |number |previous |difference |
+===========+=======+=========+===========+
|convention |1      |1        |=          |
+-----------+-------+---------+-----------+
|refactor   |0      |0        |=          |
+-----------+-------+---------+-----------+
|warning    |1      |1        |=          |
+-----------+-------+---------+-----------+
|error      |0      |0        |=          |
+-----------+-------+---------+-----------+



Messages
--------

+------------------+------------+
|message id        |occurrences |
+==================+============+
|redefined-builtin |1           |
+------------------+------------+
|missing-docstring |1           |
+------------------+------------+



Global evaluation
-----------------
Your code has been rated at 9.33/10 (previous run: 9.33/10, +0.00)
So close to being perfect...

